^C:\USERS\BEN XIONG\SOURCE\REPOS\BMX.SALARYY\DEBUG\MAIN.OBJ
C:\USERS\BEN XIONG\SOURCE\REPOS\BMX.SALARYY\DEBUG\BMX.SALARYY.ILK
C:\USERS\BEN XIONG\SOURCE\REPOS\BMX.SALARYY\DEBUG\BMX.SALARYY.EXE
C:\USERS\BEN XIONG\SOURCE\REPOS\BMX.SALARYY\DEBUG\BMX.SALARYY.PDB
